{
	"info": {
		"_postman_id": "f57c425d-68d7-4fd8-ab6d-827b991e35cc",
		"name": "Google Books",
		"schema": "https://schema.getpostman.com/json/collection/v2.1.0/collection.json"
	},
	"item": [
		{
			"name": "GET Book Info",
			"event": [
				{
					"listen": "test",
					"script": {
						"exec": [
							"pm.test(\"Status code is 200\", function () {\r",
							"    pm.response.to.have.status(200);\r",
							"});\r",
							"\r",
							"pm.test(\"Content-Type is present\", function () {\r",
							"    pm.response.to.have.header(\"Content-Type\");\r",
							"});\r",
							"pm.test(\"Body matches string\", function () {\r",
							"    pm.expect(pm.response.text()).to.include(\"Busi Selesho\");\r",
							"});\r",
							"\r",
							"pm.test(\"Check if response is JSON\", function () {\r",
							"    var jsonData = pm.response.json();\r",
							"    pm.expect(jsonData.value).to.eql(10000);\r",
							"});\r",
							"\r",
							"pm.test(\"Get Book Authors\", function(){\r",
							"var bookObj = pm.response.json();\r",
							"let testingVar = bookObj.items[0].volumeInfo.authors[0];\r",
							"console.log(testingVar);\r",
							"});\r",
							"\r",
							""
						],
						"type": "text/javascript"
					}
				}
			],
			"request": {
				"method": "GET",
				"header": [
					{
						"key": "Content-Type",
						"value": "application/json",
						"type": "text"
					},
					{
						"key": "x-api-key",
						"value": "AIzaSyAyL3HJB5K6QoZQ9S8XmbI5wKoR6XJTDV8",
						"type": "text"
					}
				],
				"url": {
					"raw": "https://www.googleapis.com/books/v1/{{searchword}}+{{isbn}}",
					"protocol": "https",
					"host": [
						"www",
						"googleapis",
						"com"
					],
					"path": [
						"books",
						"v1",
						"{{searchword}}+{{isbn}}"
					]
				},
				"description": "This request returns book information based on the search terms that you entered"
			},
			"response": []
		},
		{
			"name": "GET Book Info_Author",
			"request": {
				"method": "GET",
				"header": [],
				"url": {
					"raw": "https://www.googleapis.com/books/v1/{{searchword}}+{{inauthor}}",
					"protocol": "https",
					"host": [
						"www",
						"googleapis",
						"com"
					],
					"path": [
						"books",
						"v1",
						"{{searchword}}+{{inauthor}}"
					]
				}
			},
			"response": []
		}
	],
	"auth": {
		"type": "apikey",
		"apikey": [
			{
				"key": "key",
				"value": "",
				"type": "string"
			},
			{
				"key": "value",
				"value": "",
				"type": "string"
			}
		]
	},
	"event": [
		{
			"listen": "prerequest",
			"script": {
				"type": "text/javascript",
				"exec": [
					"console.log(\"Hi, This is Google Books API.Please see below Test results \")"
				]
			}
		},
		{
			"listen": "test",
			"script": {
				"type": "text/javascript",
				"exec": [
					"pm.test(\"Status code is 200\", function () {",
					"    pm.response.to.have.status(200);",
					"});",
					"",
					"pm.test(\"Content-Type is present\", function () {",
					"    pm.response.to.have.header(\"Content-Type\");",
					"});",
					"pm.test(\"Body matches string\", function () {",
					"    pm.expect(pm.response.text()).to.include(\"Busi Selesho\");",
					"});",
					"",
					"pm.test(\"Get Book Authors\", function(){",
					"var bookObj = pm.response.json();",
					"let inauthor = bookObj.items[0].volumeInfo.authors[0];",
					"console.log(inauthor);",
					"});",
					"",
					""
				]
			}
		}
	],
	"variable": [
		{
			"key": "isbn",
			"value": "isbn:1977009093"
		},
		{
			"key": "inauthor",
			"value": ""
		},
		{
			"key": "searchword",
			"value": "volumes?q=black+people+money"
		},
		{
			"key": "testingVar",
			"value": ""
		}
	]
}